dump.vcd
$date
	Fri Jul 11 04:37:27 2025
$end

$version
	Synopsys VCS version U-2023.03-SP2_Full64
$end

$timescale
	1ns
$end

$comment Csum: 1 125441864b2821e4 $end


$scope module $unit $end
$upscope $end


$scope module tb_top $end
$var reg 1 ! clk $end
$var reg 1 " rst $end

$scope module intf1 $end
$var wire 1 # clk $end
$var wire 1 $ rst $end
$var reg 1 % data_status $end
$var reg 8 & data_in [7:0] $end
$upscope $end


$scope module intf2 $end
$var wire 1 # clk $end
$var wire 1 $ rst $end
$var reg 1 ' mem_en $end
$var reg 2 ( mem_addr [1:0] $end
$var reg 1 ) mem_rd_wr $end
$var reg 8 * mem_data [7:0] $end
$upscope $end


$scope module intf3 $end
$var reg 1 + read_0 $end
$var reg 1 , read_1 $end
$var reg 1 - read_2 $end
$var reg 1 . read_3 $end
$var reg 1 / ready_0 $end
$var reg 1 0 ready_1 $end
$var reg 1 1 ready_2 $end
$var reg 1 2 ready_3 $end
$var reg 8 3 port_0 [7:0] $end
$var reg 8 4 port_1 [7:0] $end
$var reg 8 5 port_2 [7:0] $end
$var reg 8 6 port_3 [7:0] $end
$var wire 1 # clk $end
$var wire 1 $ rst $end
$upscope $end


$scope module s1 $end
$var wire 1 # clk $end
$var wire 1 $ reset $end
$var wire 1 7 data_status $end
$var wire 8 8 data [7:0] $end
$var wire 1 9 mem_en $end
$var wire 1 : mem_rd_wr $end
$var wire 2 ; mem_add [1:0] $end
$var wire 8 < mem_data [7:0] $end
$var wire 8 = port0 [7:0] $end
$var wire 8 > port1 [7:0] $end
$var wire 8 ? port2 [7:0] $end
$var wire 8 @ port3 [7:0] $end
$var wire 1 A ready_0 $end
$var wire 1 B ready_1 $end
$var wire 1 C ready_2 $end
$var wire 1 D ready_3 $end
$var wire 1 E read_0 $end
$var wire 1 F read_1 $end
$var wire 1 G read_2 $end
$var wire 1 H read_3 $end
$var wire 8 I data_out_0 [7:0] $end
$var wire 8 J data_out_1 [7:0] $end
$var wire 8 K data_out_2 [7:0] $end
$var wire 8 L data_out_3 [7:0] $end
$var wire 1 M ll0 $end
$var wire 1 N ll1 $end
$var wire 1 O ll2 $end
$var wire 1 P ll3 $end
$var wire 1 Q empty_0 $end
$var wire 1 R empty_1 $end
$var wire 1 S empty_2 $end
$var wire 1 T empty_3 $end
$var wire 1 U ffee $end
$var wire 1 V ffee0 $end
$var wire 1 W ffee1 $end
$var wire 1 X ffee2 $end
$var wire 1 Y ffee3 $end
$var wire 1 Z ld0 $end
$var wire 1 [ ld1 $end
$var wire 1 \ ld2 $end
$var wire 1 ] ld3 $end
$var wire 1 ^ hold $end
$var wire 1 _ write_enb [3] $end
$var wire 1 ` write_enb [2] $end
$var wire 1 a write_enb [1] $end
$var wire 1 b write_enb [0] $end
$var wire 8 c data_out_fsm [7:0] $end
$var wire 8 d addr [7:0] $end

$scope module queue_0 $end
$var wire 1 # clk $end
$var wire 1 $ reset $end
$var wire 1 b write_enb $end
$var wire 1 E read $end
$var wire 8 e data_in [7:0] $end
$var reg 8 f data_out [7:0] $end
$var wire 1 Q empty $end
$var wire 1 M full $end
$var reg 1 g tmp_empty $end
$var reg 1 h tmp_full $end
$var integer 32 i write_ptr $end
$var integer 32 j read_ptr $end
$upscope $end


$scope module queue_1 $end
$var wire 1 # clk $end
$var wire 1 $ reset $end
$var wire 1 a write_enb $end
$var wire 1 F read $end
$var wire 8 e data_in [7:0] $end
$var reg 8 k data_out [7:0] $end
$var wire 1 R empty $end
$var wire 1 N full $end
$var reg 1 l tmp_empty $end
$var reg 1 m tmp_full $end
$var integer 32 n write_ptr $end
$var integer 32 o read_ptr $end
$upscope $end


$scope module queue_2 $end
$var wire 1 # clk $end
$var wire 1 $ reset $end
$var wire 1 ` write_enb $end
$var wire 1 G read $end
$var wire 8 e data_in [7:0] $end
$var reg 8 p data_out [7:0] $end
$var wire 1 S empty $end
$var wire 1 O full $end
$var reg 1 q tmp_empty $end
$var reg 1 r tmp_full $end
$var integer 32 s write_ptr $end
$var integer 32 t read_ptr $end
$upscope $end


$scope module queue_3 $end
$var wire 1 # clk $end
$var wire 1 $ reset $end
$var wire 1 _ write_enb $end
$var wire 1 H read $end
$var wire 8 e data_in [7:0] $end
$var reg 8 u data_out [7:0] $end
$var wire 1 T empty $end
$var wire 1 P full $end
$var reg 1 v tmp_empty $end
$var reg 1 w tmp_full $end
$var integer 32 x write_ptr $end
$var integer 32 y read_ptr $end
$upscope $end


$scope module in_port $end
$var wire 1 # clk $end
$var wire 1 $ reset $end
$var wire 8 z mem0 [7:0] $end
$var wire 8 { mem1 [7:0] $end
$var wire 8 | mem2 [7:0] $end
$var wire 8 } mem3 [7:0] $end
$var wire 4 ~ write_enb [3:0] $end
$var wire 1 U ffee $end
$var wire 1 ^ hold $end
$var wire 1 7 data_status $end
$var wire 8 8 data_in [7:0] $end
$var reg 8 c data_out [7:0] $end
$var reg 8 d addr [7:0] $end
$var reg 4 "! write_enb_r [3:0] $end
$var reg 1 "" fsm_write_enb $end
$var reg 4 "# state_r [3:0] $end
$var reg 4 "$ state [3:0] $end
$var reg 8 "% parity [7:0] $end
$var reg 8 "& parity_delayed [7:0] $end
$var reg 1 "' sus_data_in $end
$var reg 1 "( error $end
$var wire 1 "' busy $end

$scope begin addr_mux $end
$upscope $end


$scope begin fsm_state $end
$upscope $end


$scope begin fsm_core $end
$upscope $end

$upscope $end

$upscope $end

$upscope $end

$enddefinitions $end

#0
$dumpvars
0!
1"
bxxxxxxxx &
bxxxxxxxx *
bxx (
bxxxxxxxx 6
bxxxxxxxx 5
bxxxxxxxx 4
bxxxxxxxx 3
x"(
xU
xV
xW
xX
xY
x""
x^
xZ
x[
x\
x]
x"'
bxxxxxxxx c
bxxxxxxxx I
bxxxxxxxx J
bxxxxxxxx K
bxxxxxxxx L
bxxxxxxxx d
bxxxxxxxx z
bxxxxxxxx {
bxxxxxxxx |
bxxxxxxxx }
bxxxxxxxx "%
bxxxxxxxx "&
bxxxx "$
bxxxx ~
bxxxx "!
bxxxx "#
xg
xh
bxxxxxxxx f
bxxxxxxxxxxxxxxxxxxxxxxxxxxxxxxxx j
bxxxxxxxxxxxxxxxxxxxxxxxxxxxxxxxx i
xl
xm
bxxxxxxxx k
bxxxxxxxxxxxxxxxxxxxxxxxxxxxxxxxx o
bxxxxxxxxxxxxxxxxxxxxxxxxxxxxxxxx n
xq
xr
bxxxxxxxx p
bxxxxxxxxxxxxxxxxxxxxxxxxxxxxxxxx t
bxxxxxxxxxxxxxxxxxxxxxxxxxxxxxxxx s
xv
xw
bxxxxxxxx u
bxxxxxxxxxxxxxxxxxxxxxxxxxxxxxxxx y
bxxxxxxxxxxxxxxxxxxxxxxxxxxxxxxxx x
bxxxxxxxx 8
bxxxxxxxx =
bxxxxxxxx >
bxxxxxxxx ?
bxxxxxxxx @
bxx ;
bxxxxxxxx <
xb
xa
x`
x_
bxxxxxxxx e
xM
xN
xO
xP
x7
1E
1F
1G
1H
xA
xB
xC
xD
x9
x:
0#
1$
x%
x'
x)
1+
1,
1-
1.
x/
x0
x1
x2
xQ
xR
xS
xT
$end
#1
1!
1#
#2
0!
0#
#3
1!
1#
#4
0!
0#
#5
1!
1#
#6
0!
0#
#7
1!
1#
#8
0!
0#
#9
1!
1#
#10
0!
0#
#11
1!
1#
#12
0!
0#
#13
1!
1#
#14
0!
0#
#15
1!
1#
#16
0!
0#
#17
1!
1#
#18
0!
0#
#19
1!
1#
#20
0"
0$
0!
0#
0"(
b00000000 c
b00000000 e
b00000000 d
b0000 "!
b0000 ~
0b
0a
0`
0_
0""
b0000 "#
b0000 "$
b00000000 "%
b00000000 "&
0"'
b00000000 f
b00000000 I
b00000000 =
b00000000 3
1g
1Q
0A
0/
0h
0M
b00000000000000000000000000000000 i
b00000000000000000000000000000000 j
b00000000 k
b00000000 J
b00000000 >
b00000000 4
1l
1R
0B
00
0m
0N
b00000000000000000000000000000000 n
b00000000000000000000000000000000 o
b00000000 p
b00000000 K
b00000000 ?
b00000000 5
1q
1S
0C
01
0r
0O
b00000000000000000000000000000000 s
b00000000000000000000000000000000 t
b00000000 u
b00000000 L
b00000000 @
b00000000 6
1v
1T
0D
02
0w
0P
b00000000000000000000000000000000 x
b00000000000000000000000000000000 y
x"'
1V
0Z
1W
0[
1X
0\
1Y
0]
1U
0^
0"'
0'
09
b00 (
b00 ;
0)
0:
b00000000 *
b00000000 <
0%
07
b00000000 &
b00000000 8
#21
1!
1#
#22
0!
0#
#23
1!
1#
#24
0!
0#
#25
1!
1#
#26
0!
0#
#27
1!
1#
#28
0!
0#
#29
1!
1#
#30
0!
0#
#31
1!
1#
#32
0!
0#
#33
1!
1#
#34
0!
0#
#35
1!
1#
#36
0!
0#
#37
1!
1#
#38
0!
0#
#39
1!
1#
#40
1"
1$
0!
0#
#41
1!
1#
1'
19
#42
0!
0#
#43
1!
1#
1)
1:
#44
0!
0#
#45
1!
1#
b00000000 z
b10 (
b10 ;
b11111110 *
b11111110 <
#46
0!
0#
#47
1!
1#
b11111110 |
0)
0:
#48
0!
0#
#49
1!
1#
#50
0!
0#
#51
1!
1#
1)
1:
#52
0!
0#
#53
1!
1#
b01 (
b01 ;
b01111000 *
b01111000 <
#54
0!
0#
#55
1!
1#
b01111000 {
0)
0:
#56
0!
0#
#57
1!
1#
#58
0!
0#
#59
1!
1#
1)
1:
#60
0!
0#
#61
1!
1#
b00 (
b00 ;
b10110010 *
b10110010 <
#62
0!
0#
#63
1!
1#
b10110010 z
0)
0:
#64
0!
0#
#65
1!
1#
#66
0!
0#
#67
1!
1#
1)
1:
#68
0!
0#
#69
1!
1#
b11 (
b11 ;
b11101010 *
b11101010 <
#70
0!
0#
#71
1!
1#
b11101010 }
0)
0:
0'
09
#72
0!
0#
#73
1!
1#
#74
0!
0#
#75
1!
1#
1%
17
b11111110 &
b11111110 8
b0100 "!
b0001 "$
b11111110 d
b11111110 c
b11111110 e
1""
b0100 ~
1`
#76
0!
0#
#77
1!
1#
b00000000000000000000000000000001 s
b0001 "#
0q
0S
1C
11
0X
0U
b10111001 &
b10111001 8
b10111001 c
b10111001 e
#78
0!
0#
#79
1!
1#
b00000000000000000000000000000010 s
b00000000000000000000000000000001 t
b11111110 p
b11111110 K
b11111110 ?
b11111110 5
b00100000 &
b00100000 8
b00100000 c
b00100000 e
#80
0!
0#
#81
1!
1#
b00000000000000000000000000000011 s
b00000000000000000000000000000010 t
b10111001 p
b10111001 K
b10111001 ?
b10111001 5
b01101100 &
b01101100 8
b01101100 c
b01101100 e
#82
0!
0#
#83
1!
1#
b00000000000000000000000000000100 s
b00000000000000000000000000000011 t
b00100000 p
b00100000 K
b00100000 ?
b00100000 5
b10100111 &
b10100111 8
b10100111 c
b10100111 e
#84
0!
0#
#85
1!
1#
b00000000000000000000000000000101 s
b00000000000000000000000000000100 t
b01101100 p
b01101100 K
b01101100 ?
b01101100 5
b10100011 &
b10100011 8
b10100011 c
b10100011 e
#86
0!
0#
#87
1!
1#
b00000000000000000000000000000110 s
b00000000000000000000000000000101 t
b10100111 p
b10100111 K
b10100111 ?
b10100111 5
b10011100 &
b10011100 8
b10011100 c
b10011100 e
#88
0!
0#
#89
1!
1#
b00000000000000000000000000000111 s
b00000000000000000000000000000110 t
b10100011 p
b10100011 K
b10100011 ?
b10100011 5
b00110100 &
b00110100 8
b00110100 c
b00110100 e
#90
0!
0#
#91
1!
1#
b00000000000000000000000000001000 s
b00000000000000000000000000000111 t
b10011100 p
b10011100 K
b10011100 ?
b10011100 5
b00111001 &
b00111001 8
b00111001 c
b00111001 e
#92
0!
0#
#93
1!
1#
b00000000000000000000000000001001 s
b00000000000000000000000000001000 t
b00110100 p
b00110100 K
b00110100 ?
b00110100 5
b10000011 &
b10000011 8
b10000011 c
b10000011 e
#94
0!
0#
#95
1!
1#
b00000000000000000000000000001010 s
b00000000000000000000000000001001 t
b00111001 p
b00111001 K
b00111001 ?
b00111001 5
b00010100 &
b00010100 8
b00010100 c
b00010100 e
#96
0!
0#
#97
1!
1#
b00000000000000000000000000001011 s
b00000000000000000000000000001010 t
b10000011 p
b10000011 K
b10000011 ?
b10000011 5
b11110110 &
b11110110 8
b11110110 c
b11110110 e
#98
0!
0#
#99
1!
1#
b00000000000000000000000000001100 s
b00000000000000000000000000001011 t
b00010100 p
b00010100 K
b00010100 ?
b00010100 5
b01010010 &
b01010010 8
b01010010 c
b01010010 e
#100
0!
0#
#101
1!
1#
b00000000000000000000000000001101 s
b00000000000000000000000000001100 t
b11110110 p
b11110110 K
b11110110 ?
b11110110 5
b11001001 &
b11001001 8
b11001001 c
b11001001 e
#102
0!
0#
#103
1!
1#
b00000000000000000000000000001110 s
b00000000000000000000000000001101 t
b01010010 p
b01010010 K
b01010010 ?
b01010010 5
b11011011 &
b11011011 8
b11011011 c
b11011011 e
#104
0!
0#
#105
1!
1#
b00000000000000000000000000001111 s
b00000000000000000000000000001110 t
b11001001 p
b11001001 K
b11001001 ?
b11001001 5
b00110110 &
b00110110 8
b00110110 c
b00110110 e
#106
0!
0#
#107
1!
1#
b00000000000000000000000000000000 s
b00000000000000000000000000001111 t
b11011011 p
b11011011 K
b11011011 ?
b11011011 5
b01101001 &
b01101001 8
b01101001 c
b01101001 e
#108
0!
0#
#109
1!
1#
b00000000000000000000000000000001 s
b00000000000000000000000000000000 t
b00110110 p
b00110110 K
b00110110 ?
b00110110 5
b10001010 &
b10001010 8
b10001010 c
b10001010 e
#110
0!
0#
#111
1!
1#
b00000000000000000000000000000010 s
b00000000000000000000000000000001 t
b01101001 p
b01101001 K
b01101001 ?
b01101001 5
b10011001 &
b10011001 8
b10011001 c
b10011001 e
#112
0!
0#
#113
1!
1#
b00000000000000000000000000000011 s
b00000000000000000000000000000010 t
b10001010 p
b10001010 K
b10001010 ?
b10001010 5
b00010111 &
b00010111 8
b00010111 c
b00010111 e
#114
0!
0#
#115
1!
1#
b00000000000000000000000000000100 s
b00000000000000000000000000000011 t
b10011001 p
b10011001 K
b10011001 ?
b10011001 5
b00011000 &
b00011000 8
b00011000 c
b00011000 e
#116
0!
0#
#117
1!
1#
b00000000000000000000000000000101 s
b00000000000000000000000000000100 t
b00010111 p
b00010111 K
b00010111 ?
b00010111 5
b11010001 &
b11010001 8
b11010001 c
b11010001 e
#118
0!
0#
#119
1!
1#
b00000000000000000000000000000110 s
b00000000000000000000000000000101 t
b00011000 p
b00011000 K
b00011000 ?
b00011000 5
b11101101 &
b11101101 8
b11101101 c
b11101101 e
#120
0!
0#
#121
1!
1#
b00000000000000000000000000000111 s
b00000000000000000000000000000110 t
b11010001 p
b11010001 K
b11010001 ?
b11010001 5
b11000001 &
b11000001 8
b11000001 c
b11000001 e
#122
0!
0#
#123
1!
1#
b00000000000000000000000000001000 s
b00000000000000000000000000000111 t
b11101101 p
b11101101 K
b11101101 ?
b11101101 5
b11111000 &
b11111000 8
b11111000 c
b11111000 e
#124
0!
0#
#125
1!
1#
b00000000000000000000000000001001 s
b00000000000000000000000000001000 t
b11000001 p
b11000001 K
b11000001 ?
b11000001 5
b01101010 &
b01101010 8
b01101010 c
b01101010 e
#126
0!
0#
#127
1!
1#
b00000000000000000000000000001010 s
b00000000000000000000000000001001 t
b11111000 p
b11111000 K
b11111000 ?
b11111000 5
b11110100 &
b11110100 8
b11110100 c
b11110100 e
#128
0!
0#
#129
1!
1#
b00000000000000000000000000001011 s
b00000000000000000000000000001010 t
b01101010 p
b01101010 K
b01101010 ?
b01101010 5
b01001110 &
b01001110 8
b01001110 c
b01001110 e
#130
0!
0#
#131
1!
1#
b00000000000000000000000000001100 s
b00000000000000000000000000001011 t
b11110100 p
b11110100 K
b11110100 ?
b11110100 5
b10000011 &
b10000011 8
b10000011 c
b10000011 e
#132
0!
0#
#133
1!
1#
b00000000000000000000000000001101 s
b00000000000000000000000000001100 t
b01001110 p
b01001110 K
b01001110 ?
b01001110 5
b10101111 &
b10101111 8
b10101111 c
b10101111 e
#134
0!
0#
#135
1!
1#
b00000000000000000000000000001110 s
b00000000000000000000000000001101 t
b10000011 p
b10000011 K
b10000011 ?
b10000011 5
b01000110 &
b01000110 8
b01000110 c
b01000110 e
#136
0!
0#
#137
1!
1#
b00000000000000000000000000001111 s
b00000000000000000000000000001110 t
b10101111 p
b10101111 K
b10101111 ?
b10101111 5
b10100101 &
b10100101 8
b10100101 c
b10100101 e
#138
0!
0#
#139
1!
1#
b00000000000000000000000000000000 s
b00000000000000000000000000001111 t
b01000110 p
b01000110 K
b01000110 ?
b01000110 5
b00000100 &
b00000100 8
b00000100 c
b00000100 e
#140
0!
0#
#141
1!
1#
b00000000000000000000000000000001 s
b00000000000000000000000000000000 t
b10100101 p
b10100101 K
b10100101 ?
b10100101 5
b00010001 &
b00010001 8
b00010001 c
b00010001 e
#142
0!
0#
#143
1!
1#
b00000000000000000000000000000010 s
b00000000000000000000000000000001 t
b00000100 p
b00000100 K
b00000100 ?
b00000100 5
b11110011 &
b11110011 8
0%
07
b0010 "$
b11110011 c
b11110011 e
#144
0!
0#
#145
1!
1#
b00000000000000000000000000000011 s
b00000000000000000000000000000010 t
b0010 "#
b00010001 p
b00010001 K
b00010001 ?
b00010001 5
b0000 "$
0""
b0000 ~
0`
b00000000 &
b00000000 8
b00000000 c
b00000000 e
#146
0!
0#
#147
1!
1#
b00000000000000000000000000000011 t
b0000 "#
b11110011 p
b11110011 K
b11110011 ?
b11110011 5
1q
1S
0C
01
1"'
1X
1U
0"'
#148
0!
0#
#149
1!
1#
#150
0!
0#
#151
1!
1#
#152
0!
0#
#153
1!
1#
1%
17
b01111000 &
b01111000 8
b0010 "!
b0001 "$
b01111000 d
b01111000 c
b01111000 e
1""
b0010 ~
1a
#154
0!
0#
#155
1!
1#
b00000000000000000000000000000001 n
b0001 "#
0l
0R
1B
10
0W
0U
b01011011 &
b01011011 8
b01011011 c
b01011011 e
#156
0!
0#
#157
1!
1#
b00000000000000000000000000000010 n
b00000000000000000000000000000001 o
b01111000 k
b01111000 J
b01111000 >
b01111000 4
b10110000 &
b10110000 8
b10110000 c
b10110000 e
#158
0!
0#
#159
1!
1#
b00000000000000000000000000000011 n
b00000000000000000000000000000010 o
b01011011 k
b01011011 J
b01011011 >
b01011011 4
b10000000 &
b10000000 8
b10000000 c
b10000000 e
#160
0!
0#
#161
1!
1#
b00000000000000000000000000000100 n
b00000000000000000000000000000011 o
b10110000 k
b10110000 J
b10110000 >
b10110000 4
b10001010 &
b10001010 8
b10001010 c
b10001010 e
#162
0!
0#
#163
1!
1#
b00000000000000000000000000000101 n
b00000000000000000000000000000100 o
b10000000 k
b10000000 J
b10000000 >
b10000000 4
b01000010 &
b01000010 8
b01000010 c
b01000010 e
#164
0!
0#
#165
1!
1#
b00000000000000000000000000000110 n
b00000000000000000000000000000101 o
b10001010 k
b10001010 J
b10001010 >
b10001010 4
b11010101 &
b11010101 8
b11010101 c
b11010101 e
#166
0!
0#
#167
1!
1#
b00000000000000000000000000000111 n
b00000000000000000000000000000110 o
b01000010 k
b01000010 J
b01000010 >
b01000010 4
b10000001 &
b10000001 8
b10000001 c
b10000001 e
#168
0!
0#
#169
1!
1#
b00000000000000000000000000001000 n
b00000000000000000000000000000111 o
b11010101 k
b11010101 J
b11010101 >
b11010101 4
b01101010 &
b01101010 8
b01101010 c
b01101010 e
#170
0!
0#
#171
1!
1#
b00000000000000000000000000001001 n
b00000000000000000000000000001000 o
b10000001 k
b10000001 J
b10000001 >
b10000001 4
b10001101 &
b10001101 8
b10001101 c
b10001101 e
#172
0!
0#
#173
1!
1#
b00000000000000000000000000001010 n
b00000000000000000000000000001001 o
b01101010 k
b01101010 J
b01101010 >
b01101010 4
b11001101 &
b11001101 8
b11001101 c
b11001101 e
#174
0!
0#
#175
1!
1#
b00000000000000000000000000001011 n
b00000000000000000000000000001010 o
b10001101 k
b10001101 J
b10001101 >
b10001101 4
b00010100 &
b00010100 8
b00010100 c
b00010100 e
#176
0!
0#
#177
1!
1#
b00000000000000000000000000001100 n
b00000000000000000000000000001011 o
b11001101 k
b11001101 J
b11001101 >
b11001101 4
b00011001 &
b00011001 8
b00011001 c
b00011001 e
#178
0!
0#
#179
1!
1#
b00000000000000000000000000001101 n
b00000000000000000000000000001100 o
b00010100 k
b00010100 J
b00010100 >
b00010100 4
b00101010 &
b00101010 8
b00101010 c
b00101010 e
#180
0!
0#
#181
1!
1#
b00000000000000000000000000001110 n
b00000000000000000000000000001101 o
b00011001 k
b00011001 J
b00011001 >
b00011001 4
b01111111 &
b01111111 8
b01111111 c
b01111111 e
#182
0!
0#
#183
1!
1#
b00000000000000000000000000001111 n
b00000000000000000000000000001110 o
b00101010 k
b00101010 J
b00101010 >
b00101010 4
b01111000 &
b01111000 8
b01111000 c
b01111000 e
#184
0!
0#
#185
1!
1#
b00000000000000000000000000000000 n
b00000000000000000000000000001111 o
b01111111 k
b01111111 J
b01111111 >
b01111111 4
b01011111 &
b01011111 8
b01011111 c
b01011111 e
#186
0!
0#
#187
1!
1#
b00000000000000000000000000000001 n
b00000000000000000000000000000000 o
b01111000 k
b01111000 J
b01111000 >
b01111000 4
b00110101 &
b00110101 8
b00110101 c
b00110101 e
#188
0!
0#
#189
1!
1#
b00000000000000000000000000000010 n
b00000000000000000000000000000001 o
b01011111 k
b01011111 J
b01011111 >
b01011111 4
b01100111 &
b01100111 8
b01100111 c
b01100111 e
#190
0!
0#
#191
1!
1#
b00000000000000000000000000000011 n
b00000000000000000000000000000010 o
b00110101 k
b00110101 J
b00110101 >
b00110101 4
b00000100 &
b00000100 8
b00000100 c
b00000100 e
#192
0!
0#
#193
1!
1#
b00000000000000000000000000000100 n
b00000000000000000000000000000011 o
b01100111 k
b01100111 J
b01100111 >
b01100111 4
b10011100 &
b10011100 8
b10011100 c
b10011100 e
#194
0!
0#
#195
1!
1#
b00000000000000000000000000000101 n
b00000000000000000000000000000100 o
b00000100 k
b00000100 J
b00000100 >
b00000100 4
b11000111 &
b11000111 8
b11000111 c
b11000111 e
#196
0!
0#
#197
1!
1#
b00000000000000000000000000000110 n
b00000000000000000000000000000101 o
b10011100 k
b10011100 J
b10011100 >
b10011100 4
b00111111 &
b00111111 8
b00111111 c
b00111111 e
#198
0!
0#
#199
1!
1#
b00000000000000000000000000000111 n
b00000000000000000000000000000110 o
b11000111 k
b11000111 J
b11000111 >
b11000111 4
b10000010 &
b10000010 8
b10000010 c
b10000010 e
#200
0!
0#
#201
1!
1#
b00000000000000000000000000001000 n
b00000000000000000000000000000111 o
b00111111 k
b00111111 J
b00111111 >
b00111111 4
b01000000 &
b01000000 8
b01000000 c
b01000000 e
#202
0!
0#
#203
1!
1#
b00000000000000000000000000001001 n
b00000000000000000000000000001000 o
b10000010 k
b10000010 J
b10000010 >
b10000010 4
b11100100 &
b11100100 8
b11100100 c
b11100100 e
#204
0!
0#
#205
1!
1#
b00000000000000000000000000001010 n
b00000000000000000000000000001001 o
b01000000 k
b01000000 J
b01000000 >
b01000000 4
b11111011 &
b11111011 8
b11111011 c
b11111011 e
#206
0!
0#
#207
1!
1#
b00000000000000000000000000001011 n
b00000000000000000000000000001010 o
b11100100 k
b11100100 J
b11100100 >
b11100100 4
b00010111 &
b00010111 8
b00010111 c
b00010111 e
#208
0!
0#
#209
1!
1#
b00000000000000000000000000001100 n
b00000000000000000000000000001011 o
b11111011 k
b11111011 J
b11111011 >
b11111011 4
b01100111 &
b01100111 8
b01100111 c
b01100111 e
#210
0!
0#
#211
1!
1#
b00000000000000000000000000001101 n
b00000000000000000000000000001100 o
b00010111 k
b00010111 J
b00010111 >
b00010111 4
b01101110 &
b01101110 8
b01101110 c
b01101110 e
#212
0!
0#
#213
1!
1#
b00000000000000000000000000001110 n
b00000000000000000000000000001101 o
b01100111 k
b01100111 J
b01100111 >
b01100111 4
b00101100 &
b00101100 8
b00101100 c
b00101100 e
#214
0!
0#
#215
1!
1#
b00000000000000000000000000001111 n
b00000000000000000000000000001110 o
b01101110 k
b01101110 J
b01101110 >
b01101110 4
b11110011 &
b11110011 8
b11110011 c
b11110011 e
#216
0!
0#
#217
1!
1#
b00000000000000000000000000000000 n
b00000000000000000000000000001111 o
b00101100 k
b00101100 J
b00101100 >
b00101100 4
b10110010 &
b10110010 8
b10110010 c
b10110010 e
#218
0!
0#
#219
1!
1#
b00000000000000000000000000000001 n
b00000000000000000000000000000000 o
b11110011 k
b11110011 J
b11110011 >
b11110011 4
b10010000 &
b10010000 8
b10010000 c
b10010000 e
#220
0!
0#
#221
1!
1#
b00000000000000000000000000000010 n
b00000000000000000000000000000001 o
b10110010 k
b10110010 J
b10110010 >
b10110010 4
b00100000 &
b00100000 8
b00100000 c
b00100000 e
#222
0!
0#
#223
1!
1#
b00000000000000000000000000000011 n
b00000000000000000000000000000010 o
b10010000 k
b10010000 J
b10010000 >
b10010000 4
b01011000 &
b01011000 8
b01011000 c
b01011000 e
#224
0!
0#
#225
1!
1#
b00000000000000000000000000000100 n
b00000000000000000000000000000011 o
b00100000 k
b00100000 J
b00100000 >
b00100000 4
b11110001 &
b11110001 8
b11110001 c
b11110001 e
#226
0!
0#
#227
1!
1#
b00000000000000000000000000000101 n
b00000000000000000000000000000100 o
b01011000 k
b01011000 J
b01011000 >
b01011000 4
b01110100 &
b01110100 8
b01110100 c
b01110100 e
#228
0!
0#
#229
1!
1#
b00000000000000000000000000000110 n
b00000000000000000000000000000101 o
b11110001 k
b11110001 J
b11110001 >
b11110001 4
b01101111 &
b01101111 8
b01101111 c
b01101111 e
#230
0!
0#
#231
1!
1#
b00000000000000000000000000000111 n
b00000000000000000000000000000110 o
b01110100 k
b01110100 J
b01110100 >
b01110100 4
b00011110 &
b00011110 8
b00011110 c
b00011110 e
#232
0!
0#
#233
1!
1#
b00000000000000000000000000001000 n
b00000000000000000000000000000111 o
b01101111 k
b01101111 J
b01101111 >
b01101111 4
b11100100 &
b11100100 8
b11100100 c
b11100100 e
#234
0!
0#
#235
1!
1#
b00000000000000000000000000001001 n
b00000000000000000000000000001000 o
b00011110 k
b00011110 J
b00011110 >
b00011110 4
b10111001 &
b10111001 8
b10111001 c
b10111001 e
#236
0!
0#
#237
1!
1#
b00000000000000000000000000001010 n
b00000000000000000000000000001001 o
b11100100 k
b11100100 J
b11100100 >
b11100100 4
b01100010 &
b01100010 8
b01100010 c
b01100010 e
#238
0!
0#
#239
1!
1#
b00000000000000000000000000001011 n
b00000000000000000000000000001010 o
b10111001 k
b10111001 J
b10111001 >
b10111001 4
b01001010 &
b01001010 8
b01001010 c
b01001010 e
#240
0!
0#
#241
1!
1#
b00000000000000000000000000001100 n
b00000000000000000000000000001011 o
b01100010 k
b01100010 J
b01100010 >
b01100010 4
b01100000 &
b01100000 8
b01100000 c
b01100000 e
#242
0!
0#
#243
1!
1#
b00000000000000000000000000001101 n
b00000000000000000000000000001100 o
b01001010 k
b01001010 J
b01001010 >
b01001010 4
b01000110 &
b01000110 8
b01000110 c
b01000110 e
#244
0!
0#
#245
1!
1#
b00000000000000000000000000001110 n
b00000000000000000000000000001101 o
b01100000 k
b01100000 J
b01100000 >
b01100000 4
b01111010 &
b01111010 8
b01111010 c
b01111010 e
#246
0!
0#
#247
1!
1#
b00000000000000000000000000001111 n
b00000000000000000000000000001110 o
b01000110 k
b01000110 J
b01000110 >
b01000110 4
b00100101 &
b00100101 8
b00100101 c
b00100101 e
#248
0!
0#
#249
1!
1#
b00000000000000000000000000000000 n
b00000000000000000000000000001111 o
b01111010 k
b01111010 J
b01111010 >
b01111010 4
b10011100 &
b10011100 8
b10011100 c
b10011100 e
#250
0!
0#
#251
1!
1#
b00000000000000000000000000000001 n
b00000000000000000000000000000000 o
b00100101 k
b00100101 J
b00100101 >
b00100101 4
b00000101 &
b00000101 8
b00000101 c
b00000101 e
#252
0!
0#
#253
1!
1#
b00000000000000000000000000000010 n
b00000000000000000000000000000001 o
b10011100 k
b10011100 J
b10011100 >
b10011100 4
b11001001 &
b11001001 8
b11001001 c
b11001001 e
#254
0!
0#
#255
1!
1#
b00000000000000000000000000000011 n
b00000000000000000000000000000010 o
b00000101 k
b00000101 J
b00000101 >
b00000101 4
b01001100 &
b01001100 8
b01001100 c
b01001100 e
#256
0!
0#
#257
1!
1#
b00000000000000000000000000000100 n
b00000000000000000000000000000011 o
b11001001 k
b11001001 J
b11001001 >
b11001001 4
b00110010 &
b00110010 8
b00110010 c
b00110010 e
#258
0!
0#
#259
1!
1#
b00000000000000000000000000000101 n
b00000000000000000000000000000100 o
b01001100 k
b01001100 J
b01001100 >
b01001100 4
b11110110 &
b11110110 8
b11110110 c
b11110110 e
#260
0!
0#
#261
1!
1#
b00000000000000000000000000000110 n
b00000000000000000000000000000101 o
b00110010 k
b00110010 J
b00110010 >
b00110010 4
b10111001 &
b10111001 8
b10111001 c
b10111001 e
#262
0!
0#
#263
1!
1#
b00000000000000000000000000000111 n
b00000000000000000000000000000110 o
b11110110 k
b11110110 J
b11110110 >
b11110110 4
b01101011 &
b01101011 8
b01101011 c
b01101011 e
#264
0!
0#
#265
1!
1#
b00000000000000000000000000001000 n
b00000000000000000000000000000111 o
b10111001 k
b10111001 J
b10111001 >
b10111001 4
b10000010 &
b10000010 8
b10000010 c
b10000010 e
#266
0!
0#
#267
1!
1#
b00000000000000000000000000001001 n
b00000000000000000000000000001000 o
b01101011 k
b01101011 J
b01101011 >
b01101011 4
b11101111 &
b11101111 8
b11101111 c
b11101111 e
#268
0!
0#
#269
1!
1#
b00000000000000000000000000001010 n
b00000000000000000000000000001001 o
b10000010 k
b10000010 J
b10000010 >
b10000010 4
b00110011 &
b00110011 8
b00110011 c
b00110011 e
#270
0!
0#
